{
    "$schema": "http://json-schema.org/draft-07/schema#",
    "description": "",
    "required": [
        "index",
        "target",
        "coords",
        "name"
    ],
    "properties": {
        "index":  {
            "type": "string"
        },
        "target": {
            "type": "string"
        },
        "coords" : {
            "type": "string"
        },
        "name": {
            "type": "string"
        }
    }
}
