{
    "$schema": "http://json-schema.org/draft-07/schema#",
    "description": "",
    "required": [
        "indexes",
        "anchorAssembly",
        "uniqueID"
    ],
    "properties": {
        "indexes":  {
            "type": "array",
            "items": {
                "type": "string"
            },  
            "description": "a list of paths to input indexes to anchor"
        },
        "anchorAssembly":  {
            "type": "string",
            "description": "path to fasta file for the anchor/reference assembly"
        },
        "uniqueID":  {
            "type": "string",
            "description": "uniqueID for maybe distinguishing output from different runs"
        },
        "localDirPath": {
            "type": "string",
            "description": "e.g. /data1/hechen/MUsoyGenomes/ <-- must include trailing forward slash",
            "default": ""
        },
        "threads": {
            "type": "integer",
            "description": "the number of threads to use for mapping",
            "default": 32
        }
    }
}
