{
    "index": "pankmer/subsetOf127glycineAssemblies_SCNrace3_30susceptible.tar",
    "anchorAssembly": "assemblies/Wm82.a5.refAssembly.fa.gz",
    "uniqueID": "2312051023",
    "anchorChromSizeDict": {"Chr01": 58848252,
                            "Chr02": 54986233,
                            "Chr03": 49126026,
                            "Chr04": 55565417,
                            "Chr05": 44498915,
                            "Chr06": 53747728,
                            "Chr07": 47217708,
                            "Chr08": 50302612,
                            "Chr09": 51410279,
                            "Chr10": 55407096,
                            "Chr11": 41206322,
                            "Chr12": 43862403,
                            "Chr13": 46254787,
                            "Chr14": 52806141,
                            "Chr15": 55385218,
                            "Chr16": 40798560,
                            "Chr17": 44045024,
                            "Chr18": 61540830,
                            "Chr19": 53925450,
                            "Chr20": 51073742,
                            "Chr00": 1580051,
                            "ChrC": 152226
                        }
}