{
    "indexes": ["pankmer/improvementStatus/17wildGsojGmaxOnly_index"],
    "anchorAssembly": "assemblies/Lee.a3.refAssembly.fasta.gz",
    "uniqueID": "240110",
    "localDirPath": "/data1/hechen/MUsoyGenomes/",
    "threads": 10,
    "anchorChromSizeDict":{"Chr01": 58717272,
                            "Chr02": 55513684,
                            "Chr03": 48868073,
                            "Chr04": 55690734,
                            "Chr05": 44718210,
                            "Chr06": 53475457,
                            "Chr07": 48400279,
                            "Chr08": 51152672,
                            "Chr09": 51595525,
                            "Chr10": 55516390,
                            "Chr11": 41226703,
                            "Chr12": 43821693,
                            "Chr13": 47301593,
                            "Chr14": 52668953,
                            "Chr15": 55908019,
                            "Chr16": 39549597,
                            "Chr17": 44046409,
                            "Chr18": 61247732,
                            "Chr19": 53607482,
                            "Chr20": 51149781,
                            "Chr00": 2053531,
                            "ChrC": 152226} 
}