{
    "indexes": ["pankmer/improvementStatus/xclsvSubset_29wild_from127glycineAssemblies_index.tar"],
    "anchorAssembly": "assemblies/Gsoj_PI483463_refAssembly.softmasked.fa.gz",
    "uniqueID": "2401052336",
    "localDirPath": "/data1/hechen/MUsoyGenomes/",
    "threads": 10,
    "anchorChromSizeDict": {"glyso.PI483463.gnm1.Gs01": 57896170,
                            "glyso.PI483463.gnm1.Gs02": 51286261,
                            "glyso.PI483463.gnm1.Gs03": 47409649,
                            "glyso.PI483463.gnm1.Gs04": 52689084,
                            "glyso.PI483463.gnm1.Gs05": 42078728,
                            "glyso.PI483463.gnm1.Gs06": 50872493,
                            "glyso.PI483463.gnm1.Gs07": 44817240,
                            "glyso.PI483463.gnm1.Gs08": 48336061,
                            "glyso.PI483463.gnm1.Gs09": 47987378,
                            "glyso.PI483463.gnm1.Gs10": 52602533,
                            "glyso.PI483463.gnm1.Gs11": 39224231,
                            "glyso.PI483463.gnm1.Gs12": 41643695,
                            "glyso.PI483463.gnm1.Gs13": 45697263,
                            "glyso.PI483463.gnm1.Gs14": 50420661,
                            "glyso.PI483463.gnm1.Gs15": 52554235,
                            "glyso.PI483463.gnm1.Gs16": 37987242,
                            "glyso.PI483463.gnm1.Gs17": 42245200,
                            "glyso.PI483463.gnm1.Gs18": 57540831,
                            "glyso.PI483463.gnm1.Gs19": 50221251,
                            "glyso.PI483463.gnm1.Gs20": 48820172,
                            "glyso.PI483463.gnm1.sc255": 820462,
                            "glyso.PI483463.gnm1.sc286": 649452,
                            "glyso.PI483463.gnm1.sc310": 551414,
                            "glyso.PI483463.gnm1.sc330": 468350,
                            "glyso.PI483463.gnm1.sc351": 391281,
                            "glyso.PI483463.gnm1.sc356": 381805,
                            "glyso.PI483463.gnm1.sc371": 344486,
                            "glyso.PI483463.gnm1.sc378": 332000,
                            "glyso.PI483463.gnm1.sc393": 295341,
                            "glyso.PI483463.gnm1.sc397": 284578,
                            "glyso.PI483463.gnm1.sc404": 268840,
                            "glyso.PI483463.gnm1.sc407": 262633,
                            "glyso.PI483463.gnm1.sc412": 254780,
                            "glyso.PI483463.gnm1.sc416": 248197,
                            "glyso.PI483463.gnm1.sc417": 247336,
                            "glyso.PI483463.gnm1.sc419": 244744,
                            "glyso.PI483463.gnm1.sc428": 234840,
                            "glyso.PI483463.gnm1.sc429": 233562,
                            "glyso.PI483463.gnm1.sc439": 212253,
                            "glyso.PI483463.gnm1.sc441": 199757,
                            "glyso.PI483463.gnm1.sc448": 195550,
                            "glyso.PI483463.gnm1.sc449": 195013,
                            "glyso.PI483463.gnm1.sc450": 194717,
                            "glyso.PI483463.gnm1.sc451": 194041,
                            "glyso.PI483463.gnm1.sc452": 192719,
                            "glyso.PI483463.gnm1.sc453": 192317,
                            "glyso.PI483463.gnm1.sc455": 186028,
                            "glyso.PI483463.gnm1.sc458": 182337,
                            "glyso.PI483463.gnm1.sc461": 180216,
                            "glyso.PI483463.gnm1.sc464": 174843,
                            "glyso.PI483463.gnm1.sc465": 172658,
                            "glyso.PI483463.gnm1.sc471": 167069,
                            "glyso.PI483463.gnm1.sc473": 162647,
                            "glyso.PI483463.gnm1.sc476": 160688,
                            "glyso.PI483463.gnm1.sc477": 159118,
                            "glyso.PI483463.gnm1.sc481": 156151,
                            "glyso.PI483463.gnm1.sc482": 156025,
                            "glyso.PI483463.gnm1.sc483": 153301,
                            "glyso.PI483463.gnm1.sc485": 149698,
                            "glyso.PI483463.gnm1.sc490": 144954,
                            "glyso.PI483463.gnm1.sc495": 137148,
                            "glyso.PI483463.gnm1.sc496": 133491,
                            "glyso.PI483463.gnm1.sc497": 131201,
                            "glyso.PI483463.gnm1.sc499": 129078,
                            "glyso.PI483463.gnm1.sc500": 126913,
                            "glyso.PI483463.gnm1.sc502": 121794,
                            "glyso.PI483463.gnm1.sc503": 120789,
                            "glyso.PI483463.gnm1.sc504": 120485,
                            "glyso.PI483463.gnm1.sc505": 119099,
                            "glyso.PI483463.gnm1.sc506": 119010,
                            "glyso.PI483463.gnm1.sc507": 117393,
                            "glyso.PI483463.gnm1.sc509": 117075,
                            "glyso.PI483463.gnm1.sc513": 114837,
                            "glyso.PI483463.gnm1.sc514": 114557,
                            "glyso.PI483463.gnm1.sc515": 114343,
                            "glyso.PI483463.gnm1.sc516": 112775,
                            "glyso.PI483463.gnm1.sc518": 110962,
                            "glyso.PI483463.gnm1.sc519": 108934,
                            "glyso.PI483463.gnm1.sc521": 107970,
                            "glyso.PI483463.gnm1.sc522": 106806,
                            "glyso.PI483463.gnm1.sc523": 106662,
                            "glyso.PI483463.gnm1.sc524": 105936,
                            "glyso.PI483463.gnm1.sc525": 105774,
                            "glyso.PI483463.gnm1.sc527": 103782,
                            "glyso.PI483463.gnm1.sc528": 103715,
                            "glyso.PI483463.gnm1.sc530": 103248,
                            "glyso.PI483463.gnm1.sc531": 101918,
                            "glyso.PI483463.gnm1.sc533": 99204,
                            "glyso.PI483463.gnm1.sc534": 98636,
                            "glyso.PI483463.gnm1.sc535": 98156,
                            "glyso.PI483463.gnm1.sc537": 95990,
                            "glyso.PI483463.gnm1.sc539": 93873,
                            "glyso.PI483463.gnm1.sc541": 93281,
                            "glyso.PI483463.gnm1.sc542": 93151,
                            "glyso.PI483463.gnm1.sc543": 91150,
                            "glyso.PI483463.gnm1.sc545": 87925,
                            "glyso.PI483463.gnm1.sc546": 87418,
                            "glyso.PI483463.gnm1.sc547": 85742,
                            "glyso.PI483463.gnm1.sc548": 85072,
                            "glyso.PI483463.gnm1.sc549": 84555,
                            "glyso.PI483463.gnm1.sc550": 84101,
                            "glyso.PI483463.gnm1.sc554": 82269,
                            "glyso.PI483463.gnm1.sc555": 81348,
                            "glyso.PI483463.gnm1.sc556": 80819,
                            "glyso.PI483463.gnm1.sc557": 80784,
                            "glyso.PI483463.gnm1.sc558": 80410,
                            "glyso.PI483463.gnm1.sc559": 80282,
                            "glyso.PI483463.gnm1.sc560": 80159,
                            "glyso.PI483463.gnm1.sc562": 76687,
                            "glyso.PI483463.gnm1.sc564": 75041,
                            "glyso.PI483463.gnm1.sc565": 75005,
                            "glyso.PI483463.gnm1.sc567": 74363,
                            "glyso.PI483463.gnm1.sc569": 73628,
                            "glyso.PI483463.gnm1.sc570": 72452,
                            "glyso.PI483463.gnm1.sc572": 71307,
                            "glyso.PI483463.gnm1.sc576": 69897,
                            "glyso.PI483463.gnm1.sc578": 69084,
                            "glyso.PI483463.gnm1.sc579": 68670,
                            "glyso.PI483463.gnm1.sc580": 67857,
                            "glyso.PI483463.gnm1.sc581": 67381,
                            "glyso.PI483463.gnm1.sc582": 67039,
                            "glyso.PI483463.gnm1.sc583": 66626,
                            "glyso.PI483463.gnm1.sc584": 65383,
                            "glyso.PI483463.gnm1.sc585": 65061,
                            "glyso.PI483463.gnm1.sc587": 63407,
                            "glyso.PI483463.gnm1.sc588": 62806,
                            "glyso.PI483463.gnm1.sc589": 62188,
                            "glyso.PI483463.gnm1.sc591": 61357,
                            "glyso.PI483463.gnm1.sc592": 61343,
                            "glyso.PI483463.gnm1.sc593": 61325,
                            "glyso.PI483463.gnm1.sc594": 61270,
                            "glyso.PI483463.gnm1.sc596": 61153,
                            "glyso.PI483463.gnm1.sc598": 61132,
                            "glyso.PI483463.gnm1.sc599": 61053,
                            "glyso.PI483463.gnm1.sc600": 60643,
                            "glyso.PI483463.gnm1.sc601": 59873,
                            "glyso.PI483463.gnm1.sc602": 59135,
                            "glyso.PI483463.gnm1.sc603": 58927,
                            "glyso.PI483463.gnm1.sc604": 58144,
                            "glyso.PI483463.gnm1.sc605": 57462,
                            "glyso.PI483463.gnm1.sc607": 56120,
                            "glyso.PI483463.gnm1.sc608": 53629,
                            "glyso.PI483463.gnm1.sc610": 52551,
                            "glyso.PI483463.gnm1.sc612": 52103,
                            "glyso.PI483463.gnm1.sc613": 51970,
                            "glyso.PI483463.gnm1.sc616": 51090,
                            "glyso.PI483463.gnm1.sc617": 51025,
                            "glyso.PI483463.gnm1.sc618": 50762,
                            "glyso.PI483463.gnm1.sc619": 50420,
                            "glyso.PI483463.gnm1.sc620": 50268,
                            "glyso.PI483463.gnm1.sc621": 50191,
                            "glyso.PI483463.gnm1.sc622": 50037,
                            "glyso.PI483463.gnm1.sc623": 49989,
                            "glyso.PI483463.gnm1.sc624": 49759,
                            "glyso.PI483463.gnm1.sc625": 49234,
                            "glyso.PI483463.gnm1.sc626": 49158,
                            "glyso.PI483463.gnm1.sc628": 47262,
                            "glyso.PI483463.gnm1.sc629": 47230,
                            "glyso.PI483463.gnm1.sc630": 47208,
                            "glyso.PI483463.gnm1.sc631": 47146,
                            "glyso.PI483463.gnm1.sc632": 46589,
                            "glyso.PI483463.gnm1.sc633": 45659,
                            "glyso.PI483463.gnm1.sc636": 45121,
                            "glyso.PI483463.gnm1.sc637": 44984,
                            "glyso.PI483463.gnm1.sc638": 44543,
                            "glyso.PI483463.gnm1.sc639": 44517,
                            "glyso.PI483463.gnm1.sc640": 44446,
                            "glyso.PI483463.gnm1.sc642": 43796,
                            "glyso.PI483463.gnm1.sc643": 43787,
                            "glyso.PI483463.gnm1.sc644": 43662,
                            "glyso.PI483463.gnm1.sc645": 43533,
                            "glyso.PI483463.gnm1.sc646": 43377,
                            "glyso.PI483463.gnm1.sc647": 42860,
                            "glyso.PI483463.gnm1.sc648": 42672,
                            "glyso.PI483463.gnm1.sc649": 42368,
                            "glyso.PI483463.gnm1.sc650": 42066,
                            "glyso.PI483463.gnm1.sc652": 41308,
                            "glyso.PI483463.gnm1.sc653": 41287,
                            "glyso.PI483463.gnm1.sc654": 40847,
                            "glyso.PI483463.gnm1.sc655": 40701,
                            "glyso.PI483463.gnm1.sc656": 40699,
                            "glyso.PI483463.gnm1.sc657": 40289,
                            "glyso.PI483463.gnm1.sc658": 40228,
                            "glyso.PI483463.gnm1.sc660": 39740,
                            "glyso.PI483463.gnm1.sc661": 39463,
                            "glyso.PI483463.gnm1.sc662": 39132,
                            "glyso.PI483463.gnm1.sc663": 38752,
                            "glyso.PI483463.gnm1.sc664": 38699,
                            "glyso.PI483463.gnm1.sc665": 38619,
                            "glyso.PI483463.gnm1.sc666": 38584,
                            "glyso.PI483463.gnm1.sc667": 38368,
                            "glyso.PI483463.gnm1.sc668": 37965,
                            "glyso.PI483463.gnm1.sc669": 37832,
                            "glyso.PI483463.gnm1.sc670": 37521,
                            "glyso.PI483463.gnm1.sc671": 37295,
                            "glyso.PI483463.gnm1.sc672": 37229,
                            "glyso.PI483463.gnm1.sc673": 37227,
                            "glyso.PI483463.gnm1.sc674": 37145,
                            "glyso.PI483463.gnm1.sc675": 36510,
                            "glyso.PI483463.gnm1.sc677": 35725,
                            "glyso.PI483463.gnm1.sc678": 35642,
                            "glyso.PI483463.gnm1.sc680": 35447,
                            "glyso.PI483463.gnm1.sc681": 35412,
                            "glyso.PI483463.gnm1.sc682": 35026,
                            "glyso.PI483463.gnm1.sc683": 34638,
                            "glyso.PI483463.gnm1.sc684": 34441,
                            "glyso.PI483463.gnm1.sc685": 34033,
                            "glyso.PI483463.gnm1.sc686": 33886,
                            "glyso.PI483463.gnm1.sc688": 33499,
                            "glyso.PI483463.gnm1.sc689": 33091,
                            "glyso.PI483463.gnm1.sc690": 32780,
                            "glyso.PI483463.gnm1.sc691": 32683,
                            "glyso.PI483463.gnm1.sc692": 32546,
                            "glyso.PI483463.gnm1.sc693": 32533,
                            "glyso.PI483463.gnm1.sc694": 32473,
                            "glyso.PI483463.gnm1.sc695": 32422,
                            "glyso.PI483463.gnm1.sc696": 32369,
                            "glyso.PI483463.gnm1.sc697": 32071,
                            "glyso.PI483463.gnm1.sc698": 31722,
                            "glyso.PI483463.gnm1.sc699": 31486,
                            "glyso.PI483463.gnm1.sc700": 31352,
                            "glyso.PI483463.gnm1.sc701": 31284,
                            "glyso.PI483463.gnm1.sc702": 31076,
                            "glyso.PI483463.gnm1.sc703": 31039,
                            "glyso.PI483463.gnm1.sc704": 30661,
                            "glyso.PI483463.gnm1.sc705": 30582,
                            "glyso.PI483463.gnm1.sc706": 30531,
                            "glyso.PI483463.gnm1.sc707": 30426,
                            "glyso.PI483463.gnm1.sc708": 30310,
                            "glyso.PI483463.gnm1.sc709": 30277,
                            "glyso.PI483463.gnm1.sc710": 29924,
                            "glyso.PI483463.gnm1.sc711": 29274,
                            "glyso.PI483463.gnm1.sc712": 29165,
                            "glyso.PI483463.gnm1.sc713": 28946,
                            "glyso.PI483463.gnm1.sc714": 28893,
                            "glyso.PI483463.gnm1.sc715": 28764,
                            "glyso.PI483463.gnm1.sc716": 28484,
                            "glyso.PI483463.gnm1.sc717": 28418,
                            "glyso.PI483463.gnm1.sc718": 28355,
                            "glyso.PI483463.gnm1.sc719": 28122,
                            "glyso.PI483463.gnm1.sc720": 28082,
                            "glyso.PI483463.gnm1.sc721": 28081,
                            "glyso.PI483463.gnm1.sc722": 27992,
                            "glyso.PI483463.gnm1.sc723": 27988,
                            "glyso.PI483463.gnm1.sc724": 27983,
                            "glyso.PI483463.gnm1.sc725": 27874,
                            "glyso.PI483463.gnm1.sc726": 27754,
                            "glyso.PI483463.gnm1.sc727": 27702,
                            "glyso.PI483463.gnm1.sc728": 27450,
                            "glyso.PI483463.gnm1.sc729": 26746,
                            "glyso.PI483463.gnm1.sc730": 26708,
                            "glyso.PI483463.gnm1.sc731": 26309,
                            "glyso.PI483463.gnm1.sc732": 26233,
                            "glyso.PI483463.gnm1.sc733": 26113,
                            "glyso.PI483463.gnm1.sc734": 26063,
                            "glyso.PI483463.gnm1.sc735": 26002,
                            "glyso.PI483463.gnm1.sc737": 25778,
                            "glyso.PI483463.gnm1.sc738": 25417,
                            "glyso.PI483463.gnm1.sc739": 25300,
                            "glyso.PI483463.gnm1.sc740": 25088,
                            "glyso.PI483463.gnm1.sc741": 24718,
                            "glyso.PI483463.gnm1.sc742": 24631,
                            "glyso.PI483463.gnm1.sc743": 24415,
                            "glyso.PI483463.gnm1.sc744": 24344,
                            "glyso.PI483463.gnm1.sc745": 24306,
                            "glyso.PI483463.gnm1.sc746": 24179,
                            "glyso.PI483463.gnm1.sc747": 24175,
                            "glyso.PI483463.gnm1.sc748": 24092,
                            "glyso.PI483463.gnm1.sc749": 24084,
                            "glyso.PI483463.gnm1.sc751": 23840,
                            "glyso.PI483463.gnm1.sc752": 23692,
                            "glyso.PI483463.gnm1.sc753": 23487,
                            "glyso.PI483463.gnm1.sc754": 23365,
                            "glyso.PI483463.gnm1.sc755": 23285,
                            "glyso.PI483463.gnm1.sc756": 23069,
                            "glyso.PI483463.gnm1.sc757": 22993,
                            "glyso.PI483463.gnm1.sc758": 22883,
                            "glyso.PI483463.gnm1.sc759": 22656,
                            "glyso.PI483463.gnm1.sc760": 22620,
                            "glyso.PI483463.gnm1.sc761": 22607,
                            "glyso.PI483463.gnm1.sc762": 22589,
                            "glyso.PI483463.gnm1.sc764": 22522,
                            "glyso.PI483463.gnm1.sc765": 22513,
                            "glyso.PI483463.gnm1.sc766": 22487,
                            "glyso.PI483463.gnm1.sc767": 22356,
                            "glyso.PI483463.gnm1.sc769": 22347,
                            "glyso.PI483463.gnm1.sc770": 22335,
                            "glyso.PI483463.gnm1.sc771": 22198,
                            "glyso.PI483463.gnm1.sc772": 22184,
                            "glyso.PI483463.gnm1.sc773": 22104,
                            "glyso.PI483463.gnm1.sc775": 21786,
                            "glyso.PI483463.gnm1.sc776": 21754,
                            "glyso.PI483463.gnm1.sc778": 21692,
                            "glyso.PI483463.gnm1.sc779": 21394,
                            "glyso.PI483463.gnm1.sc780": 21279,
                            "glyso.PI483463.gnm1.sc781": 21231,
                            "glyso.PI483463.gnm1.sc782": 20984,
                            "glyso.PI483463.gnm1.sc783": 20943,
                            "glyso.PI483463.gnm1.sc784": 20912,
                            "glyso.PI483463.gnm1.sc785": 20910,
                            "glyso.PI483463.gnm1.sc786": 20735,
                            "glyso.PI483463.gnm1.sc787": 20729,
                            "glyso.PI483463.gnm1.sc788": 20721,
                            "glyso.PI483463.gnm1.sc789": 20654,
                            "glyso.PI483463.gnm1.sc790": 20467,
                            "glyso.PI483463.gnm1.sc791": 20157
                        }
}