{
    "genomes": "assemblies/diploid_hap1hap2combined/Gcan_MU-064.v1.hifiasm.diploid.fa.gz assemblies/diploid_hap1hap2combined/Gcyr_MU-065.v1.hifiasm.diploid.fa.gz assemblies/diploid_hap1hap2combined/Gmax_MU-001.v1.hifiasm.diploid.fa.gz assemblies/diploid_hap1hap2combined/Gmax_MU-003.v1.hifiasm.diploid.fa.gz assemblies/diploid_hap1hap2combined/Gmax_MU-004.v1.hifiasm.diploid.fa.gz assemblies/diploid_hap1hap2combined/Gmax_MU-005.v1.hifiasm.diploid.fa.gz assemblies/diploid_hap1hap2combined/Gmax_MU-006.v1.hifiasm.diploid.fa.gz assemblies/diploid_hap1hap2combined/Gmax_MU-007.v1.hifiasm.diploid.fa.gz assemblies/diploid_hap1hap2combined/Gmax_MU-008.v1.hifiasm.diploid.fa.gz assemblies/diploid_hap1hap2combined/Gmax_MU-009.v1.hifiasm.diploid.fa.gz assemblies/diploid_hap1hap2combined/Gmax_MU-010.v1.hifiasm.diploid.fa.gz assemblies/diploid_hap1hap2combined/Gmax_MU-011.v1.hifiasm.diploid.fa.gz assemblies/diploid_hap1hap2combined/Gmax_MU-012.v1.hifiasm.diploid.fa.gz assemblies/diploid_hap1hap2combined/Gmax_MU-013.v1.hifiasm.diploid.fa.gz assemblies/diploid_hap1hap2combined/Gmax_MU-014.v1.hifiasm.diploid.fa.gz assemblies/diploid_hap1hap2combined/Gmax_MU-015.v1.hifiasm.diploid.fa.gz assemblies/diploid_hap1hap2combined/Gmax_MU-016.v1.hifiasm.diploid.fa.gz assemblies/diploid_hap1hap2combined/Gmax_MU-017.v1.hifiasm.diploid.fa.gz assemblies/diploid_hap1hap2combined/Gmax_MU-018.v1.hifiasm.diploid.fa.gz assemblies/diploid_hap1hap2combined/Gmax_MU-020.v1.hifiasm.diploid.fa.gz assemblies/diploid_hap1hap2combined/Gmax_MU-021.v1.hifiasm.diploid.fa.gz assemblies/diploid_hap1hap2combined/Gmax_MU-022.v1.hifiasm.diploid.fa.gz assemblies/diploid_hap1hap2combined/Gmax_MU-023.v1.hifiasm.diploid.fa.gz assemblies/diploid_hap1hap2combined/Gmax_MU-024.v1.hifiasm.diploid.fa.gz assemblies/diploid_hap1hap2combined/Gmax_MU-025.v1.hifiasm.diploid.fa.gz assemblies/diploid_hap1hap2combined/Gmax_MU-026.v1.hifiasm.diploid.fa.gz assemblies/diploid_hap1hap2combined/Gmax_MU-027.v1.hifiasm.diploid.fa.gz assemblies/diploid_hap1hap2combined/Gmax_MU-028.v2.hifiasm.diploid.fa.gz assemblies/diploid_hap1hap2combined/Gmax_MU-030.v1.hifiasm.diploid.fa.gz assemblies/diploid_hap1hap2combined/Gmax_MU-038.v1.hifiasm.diploid.fa.gz assemblies/diploid_hap1hap2combined/Gmax_MU-041.v1.hifiasm.diploid.fa.gz assemblies/diploid_hap1hap2combined/Gmax_MU-044.v1.hifiasm.diploid.fa.gz assemblies/diploid_hap1hap2combined/Gmax_MU-047.v1.hifiasm.diploid.fa.gz assemblies/diploid_hap1hap2combined/Gmax_MU-049.v1.hifiasm.diploid.fa.gz assemblies/diploid_hap1hap2combined/Gmax_MU-050.v1.hifiasm.diploid.fa.gz assemblies/diploid_hap1hap2combined/Gmax_MU-051.v1.hifiasm.diploid.fa.gz assemblies/diploid_hap1hap2combined/Gmax_MU-052.v1.hifiasm.diploid.fa.gz assemblies/diploid_hap1hap2combined/Gmax_MU-053.v1.hifiasm.diploid.fa.gz assemblies/diploid_hap1hap2combined/Gmax_MU-056_2.v1.hifiasm.diploid.fa.gz assemblies/diploid_hap1hap2combined/Gmax_MU-059.v1.hifiasm.diploid.fa.gz assemblies/diploid_hap1hap2combined/Gmax_MU-060.v1.hifiasm.diploid.fa.gz assemblies/diploid_hap1hap2combined/Gmax_MU-061.v1.hifiasm.diploid.fa.gz assemblies/diploid_hap1hap2combined/Gmax_MU-062.v1.hifiasm.diploid.fa.gz assemblies/diploid_hap1hap2combined/Gmax_MU-063.v1.hifiasm.diploid.fa.gz assemblies/diploid_hap1hap2combined/Gmax_MU-066.v1.hifiasm.diploid.fa.gz assemblies/diploid_hap1hap2combined/Gmax_MU-067.v1.hifiasm.diploid.fa.gz assemblies/diploid_hap1hap2combined/Gmax_MU-068.v1.hifiasm.diploid.fa.gz assemblies/diploid_hap1hap2combined/Gmax_MU-069.v1.hifiasm.diploid.fa.gz assemblies/diploid_hap1hap2combined/Gmax_MU-070.v1.hifiasm.diploid.fa.gz assemblies/diploid_hap1hap2combined/Gmax_MU-071.v1.hifiasm.diploid.fa.gz assemblies/diploid_hap1hap2combined/Gmax_MU-072.v1.hifiasm.diploid.fa.gz assemblies/diploid_hap1hap2combined/Gmax_MU-073.v1.hifiasm.diploid.fa.gz assemblies/diploid_hap1hap2combined/Gmax_MU-074.v1.hifiasm.diploid.fa.gz assemblies/diploid_hap1hap2combined/Gmax_MU-076.v1.hifiasm.diploid.fa.gz assemblies/diploid_hap1hap2combined/Gmax_MU-077.v1.hifiasm.diploid.fa.gz assemblies/diploid_hap1hap2combined/Gmax_MU-078.v1.hifiasm.diploid.fa.gz assemblies/diploid_hap1hap2combined/Gmax_MU-079.v1.hifiasm.diploid.fa.gz assemblies/diploid_hap1hap2combined/Gmax_MU-080.v1.hifiasm.diploid.fa.gz assemblies/diploid_hap1hap2combined/Gmax_MU-081.v1.hifiasm.diploid.fa.gz assemblies/diploid_hap1hap2combined/Gmax_MU-082.v1.hifiasm.diploid.fa.gz assemblies/diploid_hap1hap2combined/Gmax_MU-084.v1.hifiasm.diploid.fa.gz assemblies/diploid_hap1hap2combined/Gmax_MU-085.v1.hifiasm.diploid.fa.gz assemblies/diploid_hap1hap2combined/Gmax_MU-086.v1.hifiasm.diploid.fa.gz assemblies/diploid_hap1hap2combined/Gmax_MU-087.v1.hifiasm.diploid.fa.gz assemblies/diploid_hap1hap2combined/Gmax_MU-088.v1.hifiasm.diploid.fa.gz assemblies/diploid_hap1hap2combined/Gmax_MU-089.v1.hifiasm.diploid.fa.gz assemblies/diploid_hap1hap2combined/Gmax_MU-090.v1.hifiasm.diploid.fa.gz assemblies/diploid_hap1hap2combined/Gmax_MU-091.v1.hifiasm.diploid.fa.gz assemblies/diploid_hap1hap2combined/Gmax_MU-093.v1.hifiasm.diploid.fa.gz assemblies/diploid_hap1hap2combined/Gmax_MU-094.v1.hifiasm.diploid.fa.gz assemblies/diploid_hap1hap2combined/Gmax_MU-095.v1.hifiasm.diploid.fa.gz assemblies/diploid_hap1hap2combined/Gmax_MU-096.v1.hifiasm.diploid.fa.gz assemblies/diploid_hap1hap2combined/Gmax_MU-097.v1.hifiasm.diploid.fa.gz assemblies/diploid_hap1hap2combined/Gmax_MU-100.v1.hifiasm.diploid.fa.gz assemblies/diploid_hap1hap2combined/Gmax_MU-101.v1.hifiasm.diploid.fa.gz assemblies/diploid_hap1hap2combined/Gmax_MU-102.v1.hifiasm.diploid.fa.gz assemblies/diploid_hap1hap2combined/Gmax_MU-103.v1.hifiasm.diploid.fa.gz assemblies/diploid_hap1hap2combined/Gmax_MU-104.v1.hifiasm.diploid.fa.gz assemblies/diploid_hap1hap2combined/Gmax_MU-105.v1.hifiasm.diploid.fa.gz assemblies/diploid_hap1hap2combined/Gmax_MU-106.v1.hifiasm.diploid.fa.gz assemblies/diploid_hap1hap2combined/Gmax_MU-107.v1.hifiasm.diploid.fa.gz assemblies/diploid_hap1hap2combined/Gmax_MU-108.v1.hifiasm.diploid.fa.gz assemblies/diploid_hap1hap2combined/Gmax_MU-109.v1.hifiasm.diploid.fa.gz assemblies/diploid_hap1hap2combined/Gsoj_MU-002.v1.hifiasm.diploid.fa.gz assemblies/diploid_hap1hap2combined/Gsoj_MU-029.v1.hifiasm.diploid.fa.gz assemblies/diploid_hap1hap2combined/Gsoj_MU-031.v1.hifiasm.diploid.fa.gz assemblies/diploid_hap1hap2combined/Gsoj_MU-032.v1.hifiasm.diploid.fa.gz assemblies/diploid_hap1hap2combined/Gsoj_MU-033.v1.hifiasm.diploid.fa.gz assemblies/diploid_hap1hap2combined/Gsoj_MU-035.v1.hifiasm.diploid.fa.gz assemblies/diploid_hap1hap2combined/Gsoj_MU-036.v1.hifiasm.diploid.fa.gz assemblies/diploid_hap1hap2combined/Gsoj_MU-037.v1.hifiasm.diploid.fa.gz assemblies/diploid_hap1hap2combined/Gsoj_MU-039.v1.hifiasm.diploid.fa.gz assemblies/diploid_hap1hap2combined/Gsoj_MU-040.v1.hifiasm.diploid.fa.gz assemblies/diploid_hap1hap2combined/Gsoj_MU-042.v1.hifiasm.diploid.fa.gz assemblies/diploid_hap1hap2combined/Gsoj_MU-043.v1.hifiasm.diploid.fa.gz assemblies/diploid_hap1hap2combined/Gsoj_MU-045.v1.hifiasm.diploid.fa.gz assemblies/diploid_hap1hap2combined/Gsoj_MU-055.v1.hifiasm.diploid.fa.gz assemblies/diploid_hap1hap2combined/Gsoj_MU-057-1.v1.hifiasm.diploid.fa.gz assemblies/diploid_hap1hap2combined/Gsoj_MU-058.v1.hifiasm.diploid.fa.gz assemblies/diploid_hap1hap2combined/Gsoj_MU-075.v1.hifiasm.diploid.fa.gz assemblies/diploid_hap1hap2combined/Gsoj_MU-092.v1.hifiasm.diploid.fa.gz assemblies/diploid_hap1hap2combined/Gsoj_MU-098.v1.hifiasm.diploid.fa.gz assemblies/diploid_hap1hap2combined/Gsoj_MU-099-1.v1.hifiasm.diploid.fa.gz assemblies/diploid_hap1hap2combined/Gste_MU-054.v1.hifiasm.diploid.fa.gz assemblies/diploid_hap1hap2combined/Gsyn_MU-046.v1.hifiasm.diploid.fa.gz assemblies/diploid_hap1hap2combined/Gtme_MU-112.v1.hifiasm.diploid.fa.gz assemblies/diploid_hap1hap2combined/Gtme_MU-113.v1.hifiasm.diploid.fa.gz assemblies/otherGlycineAssembliesToInclude/Gcyr_G1267a1.fa.gz assemblies/otherGlycineAssembliesToInclude/Gdol_G1134a1.fa.gz assemblies/otherGlycineAssembliesToInclude/Gfal_G1718a1.fa.gz assemblies/Gsoj_PI483463_refAssembly.softmasked.fa.gz assemblies/otherGlycineAssembliesToInclude/Gmax_FiskebyIIIa1.fa.gz assemblies/otherGlycineAssembliesToInclude/Gmax_KAS173-3L05a1.fa.gz assemblies/otherGlycineAssembliesToInclude/Gmax_LincolnC10a1.fa.gz assemblies/otherGlycineAssembliesToInclude/Gmax_Wm82_IGA1008.fa.gz assemblies/otherGlycineAssembliesToInclude/Gmax_Wm82_NJAU.fa.gz assemblies/otherGlycineAssembliesToInclude/Gmax_ZH13.fa.gz assemblies/otherGlycineAssembliesToInclude/Gsoj_W01a1.fa.gz assemblies/otherGlycineAssembliesToInclude/Gsoj_W02a1.fa.gz assemblies/otherGlycineAssembliesToInclude/Gsoj_W03a1.fa.gz assemblies/otherGlycineAssembliesToInclude/Gsoj_W05a1.fa.gz assemblies/otherGlycineAssembliesToInclude/Gste_G1974a1.fa.gz assemblies/otherGlycineAssembliesToInclude/Gsyn_G1300a1.fa.gz assemblies/otherGlycineAssembliesToInclude/Gtme_G1403a1.fa.gz assemblies/Lee.a3.refAssembly.fasta.gz assemblies/Wm82.a5.refAssembly.fasta.gz assemblies/Gmax_Wm82ISU.softmasked.fa.gz",
    "paired_genomes_set1": "",
    "paired_genomes_set2": "",
    "sample": "pankmer/127glycineAssemblies",
    "disk_mb": 1000000,
    "mem_mb": 200000,
    "threads": 64,
    "mem_split": 1
}