{
    "genomes": "Gmax_MU-001_PI548488/assemblies/Gmax_MU-001_PI548488.v1.hifiasm.hap1.fcs_gx_3847.fasta Gmax_MU-001_PI548488/assemblies/Gmax_MU-001_PI548488.v1.hifiasm.hap2.fcs_gx_3847.fasta Gmax_MU-001_PI548488/assemblies/Gmax_MU-001_PI548488.v1.hifiasm.fcs_gx_3847.fasta Gsoj_MU-002_PI483463/assemblies/tryHifiasmULR/Gsoj_MU-002_PI483463.v3.hifiasm_ulr.hap1.fcs_gx_3848.fasta Gsoj_MU-002_PI483463/assemblies/tryHifiasmULR/Gsoj_MU-002_PI483463.v3.hifiasm_ulr.hap2.fcs_gx_3848.fasta Gsoj_MU-002_PI483463/assemblies/tryHifiasmULR/Gsoj_MU-002_PI483463.v3.hifiasm_ulr.fcs_gx_3848.fasta Gmax_MU-003_PI548362/assemblies/Gmax_MU-003_PI548362.v1.hifiasm.hap1.fcs_gx_3847.fasta Gmax_MU-003_PI548362/assemblies/Gmax_MU-003_PI548362.v1.hifiasm.hap2.fcs_gx_3847.fasta Gmax_MU-003_PI548362/assemblies/Gmax_MU-003_PI548362.v1.hifiasm.fcs_gx_3847.fasta Gmax_MU-004_PI602502B/assemblies/Gmax_MU-004_PI602502B.v1.hifiasm.hap1.fcs_gx_3847.fasta Gmax_MU-004_PI602502B/assemblies/Gmax_MU-004_PI602502B.v1.hifiasm.hap2.fcs_gx_3847.fasta Gmax_MU-004_PI602502B/assemblies/Gmax_MU-004_PI602502B.v1.hifiasm.fcs_gx_3847.fasta Gmax_MU-005_PI398593/assemblies/Gmax_MU-005_PI398593.v1.hifiasm.hap1.fcs_gx_3847.fasta Gmax_MU-005_PI398593/assemblies/Gmax_MU-005_PI398593.v1.hifiasm.hap2.fcs_gx_3847.fasta Gmax_MU-005_PI398593/assemblies/Gmax_MU-005_PI398593.v1.hifiasm.fcs_gx_3847.fasta Gmax_MU-006_PI438500/assemblies/Gmax_MU-006_PI438500.v1.hifiasm.hap1.fcs_gx_3847.fasta Gmax_MU-006_PI438500/assemblies/Gmax_MU-006_PI438500.v1.hifiasm.hap2.fcs_gx_3847.fasta Gmax_MU-006_PI438500/assemblies/Gmax_MU-006_PI438500.v1.hifiasm.fcs_gx_3847.fasta Gmax_MU-007_PI567690/assemblies/Gmax_MU-007_PI567690.v1.hifiasm.hap1.fcs_gx_3847.fasta Gmax_MU-007_PI567690/assemblies/Gmax_MU-007_PI567690.v1.hifiasm.hap2.fcs_gx_3847.fasta Gmax_MU-007_PI567690/assemblies/Gmax_MU-007_PI567690.v1.hifiasm.fcs_gx_3847.fasta Gmax_MU-008_PI561271/assemblies/Gmax_MU-008_PI561271.v1.hifiasm.hap1.fcs_gx_3847.fasta Gmax_MU-008_PI561271/assemblies/Gmax_MU-008_PI561271.v1.hifiasm.hap2.fcs_gx_3847.fasta Gmax_MU-008_PI561271/assemblies/Gmax_MU-008_PI561271.v1.hifiasm.fcs_gx_3847.fasta Gmax_MU-009_PI398595/assemblies/Gmax_MU-009_PI398595.v1.hifiasm.hap1.fcs_gx_3847.fasta Gmax_MU-009_PI398595/assemblies/Gmax_MU-009_PI398595.v1.hifiasm.hap2.fcs_gx_3847.fasta Gmax_MU-009_PI398595/assemblies/Gmax_MU-009_PI398595.v1.hifiasm.fcs_gx_3847.fasta Gmax_MU-010_PI548200/assemblies/Gmax_MU-010_PI548200.v1.hifiasm.hap1.fcs_gx_3847.fasta Gmax_MU-010_PI548200/assemblies/Gmax_MU-010_PI548200.v1.hifiasm.hap2.fcs_gx_3847.fasta Gmax_MU-010_PI548200/assemblies/Gmax_MU-010_PI548200.v1.hifiasm.fcs_gx_3847.fasta Gmax_MU-011_PI291293B/assemblies/Gmax_MU-011_PI291293B.v1.hifiasm.hap1.fcs_gx_3847.fasta Gmax_MU-011_PI291293B/assemblies/Gmax_MU-011_PI291293B.v1.hifiasm.hap2.fcs_gx_3847.fasta Gmax_MU-011_PI291293B/assemblies/Gmax_MU-011_PI291293B.v1.hifiasm.fcs_gx_3847.fasta Gmax_MU-012_PI91346/assemblies/Gmax_MU-012_PI91346.v1.hifiasm.hap1.fcs_gx_3847.fasta Gmax_MU-012_PI91346/assemblies/Gmax_MU-012_PI91346.v1.hifiasm.hap2.fcs_gx_3847.fasta Gmax_MU-012_PI91346/assemblies/Gmax_MU-012_PI91346.v1.hifiasm.fcs_gx_3847.fasta Gmax_MU-013_PI578325/assemblies/Gmax_MU-013_PI578325.v1.hifiasm.hap1.fcs_gx_3847.fasta Gmax_MU-013_PI578325/assemblies/Gmax_MU-013_PI578325.v1.hifiasm.hap2.fcs_gx_3847.fasta Gmax_MU-013_PI578325/assemblies/Gmax_MU-013_PI578325.v1.hifiasm.fcs_gx_3847.fasta Gmax_MU-014_PI561350B/assemblies/Gmax_MU-014_PI561350B.v1.hifiasm.hap1.fcs_gx_3847.fasta Gmax_MU-014_PI561350B/assemblies/Gmax_MU-014_PI561350B.v1.hifiasm.hap2.fcs_gx_3847.fasta Gmax_MU-014_PI561350B/assemblies/Gmax_MU-014_PI561350B.v1.hifiasm.fcs_gx_3847.fasta Gmax_MU-015_PI547570/assemblies/Gmax_MU-015_PI547570.v1.hifiasm.hap1.fcs_gx_3847.fasta Gmax_MU-015_PI547570/assemblies/Gmax_MU-015_PI547570.v1.hifiasm.hap2.fcs_gx_3847.fasta Gmax_MU-015_PI547570/assemblies/Gmax_MU-015_PI547570.v1.hifiasm.fcs_gx_3847.fasta Gmax_MU-016_PI437076/assemblies/Gmax_MU-016_PI437076.v1.hifiasm.hap1.fcs_gx_3847.fasta Gmax_MU-016_PI437076/assemblies/Gmax_MU-016_PI437076.v1.hifiasm.hap2.fcs_gx_3847.fasta Gmax_MU-016_PI437076/assemblies/Gmax_MU-016_PI437076.v1.hifiasm.fcs_gx_3847.fasta Gmax_MU-017_PI603566/assemblies/Gmax_MU-017_PI603566.v1.hifiasm.hap1.fcs_gx_3847.fasta Gmax_MU-017_PI603566/assemblies/Gmax_MU-017_PI603566.v1.hifiasm.hap2.fcs_gx_3847.fasta Gmax_MU-017_PI603566/assemblies/Gmax_MU-017_PI603566.v1.hifiasm.fcs_gx_3847.fasta Gmax_MU-018_PI548406/assemblies/Gmax_MU-018_PI548406.v2.hifiasm.hap1.fcs_gx_3847.fasta Gmax_MU-018_PI548406/assemblies/Gmax_MU-018_PI548406.v2.hifiasm.hap2.fcs_gx_3847.fasta Gmax_MU-018_PI548406/assemblies/Gmax_MU-018_PI548406.v2.hifiasm.fcs_gx_3847.fasta Gmax_MU-019_PI548359/assemblies/Gmax_MU-019_PI548359.v1.hifiasm.hap1.fcs_gx_3847.fasta Gmax_MU-019_PI548359/assemblies/Gmax_MU-019_PI548359.v1.hifiasm.hap2.fcs_gx_3847.fasta Gmax_MU-019_PI548359/assemblies/Gmax_MU-019_PI548359.v1.hifiasm.fcs_gx_3847.fasta Gmax_MU-020_PI438402/assemblies/Gmax_MU-020_PI438402.v1.hifiasm.hap1.fcs_gx_3847.fasta Gmax_MU-020_PI438402/assemblies/Gmax_MU-020_PI438402.v1.hifiasm.hap2.fcs_gx_3847.fasta Gmax_MU-020_PI438402/assemblies/Gmax_MU-020_PI438402.v1.hifiasm.fcs_gx_3847.fasta Gmax_MU-021_PI547804/assemblies/Gmax_MU-021_PI547804.v1.hifiasm.hap1.fcs_gx_3847.fasta Gmax_MU-021_PI547804/assemblies/Gmax_MU-021_PI547804.v1.hifiasm.hap2.fcs_gx_3847.fasta Gmax_MU-021_PI547804/assemblies/Gmax_MU-021_PI547804.v1.hifiasm.fcs_gx_3847.fasta Gmax_MU-022_PI326580/assemblies/Gmax_MU-022_PI326580.v1.hifiasm.hap1.fcs_gx_3847.fasta Gmax_MU-022_PI326580/assemblies/Gmax_MU-022_PI326580.v1.hifiasm.hap2.fcs_gx_3847.fasta Gmax_MU-022_PI326580/assemblies/Gmax_MU-022_PI326580.v1.hifiasm.fcs_gx_3847.fasta Gmax_MU-023_PI555396/assemblies/Gmax_MU-023_PI555396.v1.hifiasm.hap1.fcs_gx_3847.fasta Gmax_MU-023_PI555396/assemblies/Gmax_MU-023_PI555396.v1.hifiasm.hap2.fcs_gx_3847.fasta Gmax_MU-023_PI555396/assemblies/Gmax_MU-023_PI555396.v1.hifiasm.fcs_gx_3847.fasta Gmax_MU-024_PI62202-2/assemblies/Gmax_MU-024_PI62202-2.v1.hifiasm.hap1.fcs_gx_3847.fasta Gmax_MU-024_PI62202-2/assemblies/Gmax_MU-024_PI62202-2.v1.hifiasm.hap2.fcs_gx_3847.fasta Gmax_MU-024_PI62202-2/assemblies/Gmax_MU-024_PI62202-2.v1.hifiasm.fcs_gx_3847.fasta Gmax_MU-025_PI612758A/assemblies/Gmax_MU-025_PI612758A.v1.hifiasm.hap1.fcs_gx_3847.fasta Gmax_MU-025_PI612758A/assemblies/Gmax_MU-025_PI612758A.v1.hifiasm.hap2.fcs_gx_3847.fasta Gmax_MU-025_PI612758A/assemblies/Gmax_MU-025_PI612758A.v1.hifiasm.fcs_gx_3847.fasta Gmax_MU-026_PI547830/assemblies/Gmax_MU-026_PI547830.v1.hifiasm.hap1.fcs_gx_3847.fasta Gmax_MU-026_PI547830/assemblies/Gmax_MU-026_PI547830.v1.hifiasm.hap2.fcs_gx_3847.fasta Gmax_MU-026_PI547830/assemblies/Gmax_MU-026_PI547830.v1.hifiasm.fcs_gx_3847.fasta Gmax_MU-027_PI471938/assemblies/Gmax_MU-027_PI471938.v1.hifiasm.hap1.fcs_gx_3847.fasta Gmax_MU-027_PI471938/assemblies/Gmax_MU-027_PI471938.v1.hifiasm.hap2.fcs_gx_3847.fasta Gmax_MU-027_PI471938/assemblies/Gmax_MU-027_PI471938.v1.hifiasm.fcs_gx_3847.fasta Gmax_MU-028_PI398610/assemblies/Gmax_MU-028_PI398610.v3.hifiasm.hap1.fcs_gx_3847.fasta Gmax_MU-028_PI398610/assemblies/Gmax_MU-028_PI398610.v3.hifiasm.hap2.fcs_gx_3847.fasta Gmax_MU-028_PI398610/assemblies/Gmax_MU-028_PI398610.v3.hifiasm.fcs_gx_3847.fasta Gsoj_MU-029_PI507662/assemblies/Gsoj_MU-029_PI507662.v1.hifiasm.hap1.fcs_gx_3848.fasta Gsoj_MU-029_PI507662/assemblies/Gsoj_MU-029_PI507662.v1.hifiasm.hap2.fcs_gx_3848.fasta Gsoj_MU-029_PI507662/assemblies/Gsoj_MU-029_PI507662.v1.hifiasm.fcs_gx_3848.fasta Gmax_MU-030_PI548655/assemblies/Gmax_MU-030_PI548655.v1.hifiasm.hap1.fcs_gx_3847.fasta Gmax_MU-030_PI548655/assemblies/Gmax_MU-030_PI548655.v1.hifiasm.hap2.fcs_gx_3847.fasta Gmax_MU-030_PI548655/assemblies/Gmax_MU-030_PI548655.v1.hifiasm.fcs_gx_3847.fasta Gsoj_MU-031_PI483460B/assemblies/Gsoj_MU-031_PI483460B.v1.hifiasm.hap1.fcs_gx_3848.fasta Gsoj_MU-031_PI483460B/assemblies/Gsoj_MU-031_PI483460B.v1.hifiasm.hap2.fcs_gx_3848.fasta Gsoj_MU-031_PI483460B/assemblies/Gsoj_MU-031_PI483460B.v1.hifiasm.fcs_gx_3848.fasta Gsoj_MU-032_PI424089/assemblies/Gsoj_MU-032_PI424089.v1.hifiasm.hap1.fcs_gx_3848.fasta Gsoj_MU-032_PI424089/assemblies/Gsoj_MU-032_PI424089.v1.hifiasm.hap2.fcs_gx_3848.fasta Gsoj_MU-032_PI424089/assemblies/Gsoj_MU-032_PI424089.v1.hifiasm.fcs_gx_3848.fasta Gsoj_MU-033_PI378695B/assemblies/Gsoj_MU-033_PI378695B.v1.hifiasm.hap1.fcs_gx_3848.fasta Gsoj_MU-033_PI378695B/assemblies/Gsoj_MU-033_PI378695B.v1.hifiasm.hap2.fcs_gx_3848.fasta Gsoj_MU-033_PI378695B/assemblies/Gsoj_MU-033_PI378695B.v1.hifiasm.fcs_gx_3848.fasta Gsoj_MU-034_PI578337/assemblies/Gsoj_MU-034_PI578337.v1.hifiasm.hap1.fcs_gx_3848.fasta Gsoj_MU-034_PI578337/assemblies/Gsoj_MU-034_PI578337.v1.hifiasm.hap2.fcs_gx_3848.fasta Gsoj_MU-034_PI578337/assemblies/Gsoj_MU-034_PI578337.v1.hifiasm.fcs_gx_3848.fasta Gsoj_MU-035_PI378690/assemblies/Gsoj_MU-035_PI378690.v1.hifiasm.hap1.fcs_gx_3848.fasta Gsoj_MU-035_PI378690/assemblies/Gsoj_MU-035_PI378690.v1.hifiasm.hap2.fcs_gx_3848.fasta Gsoj_MU-035_PI378690/assemblies/Gsoj_MU-035_PI378690.v1.hifiasm.fcs_gx_3848.fasta Gsoj_MU-036_PI549047/assemblies/Gsoj_MU-036_PI549047.v2.hifiasm.hap1.fcs_gx_3848.fasta Gsoj_MU-036_PI549047/assemblies/Gsoj_MU-036_PI549047.v2.hifiasm.hap2.fcs_gx_3848.fasta Gsoj_MU-036_PI549047/assemblies/Gsoj_MU-036_PI549047.v2.hifiasm.fcs_gx_3848.fasta Gsoj_MU-037_PI639591/assemblies/Gsoj_MU-037_PI639591.v1.hifiasm.hap1.fcs_gx_3848.fasta Gsoj_MU-037_PI639591/assemblies/Gsoj_MU-037_PI639591.v1.hifiasm.hap2.fcs_gx_3848.fasta Gsoj_MU-037_PI639591/assemblies/Gsoj_MU-037_PI639591.v1.hifiasm.fcs_gx_3848.fasta Gmax_MU-038_PI416937/assemblies/Gmax_MU-038_PI416937.v1.hifiasm.hap1.fasta Gmax_MU-038_PI416937/assemblies/Gmax_MU-038_PI416937.v1.hifiasm.hap2.fasta Gmax_MU-038_PI416937/assemblies/Gmax_MU-038_PI416937.v1.hifiasm.fasta Gsoj_MU-039_PI479752/assemblies/Gsoj_MU-039_PI479752.v1.hifiasm.hap1.fcs_gx_3848.fasta Gsoj_MU-039_PI479752/assemblies/Gsoj_MU-039_PI479752.v1.hifiasm.hap2.fcs_gx_3848.fasta Gsoj_MU-039_PI479752/assemblies/Gsoj_MU-039_PI479752.v1.hifiasm.fcs_gx_3848.fasta Gsoj_MU-040_PI407302/assemblies/Gsoj_MU-040_PI407302.v1.hifiasm.hap1.fcs_gx_3848.fasta Gsoj_MU-040_PI407302/assemblies/Gsoj_MU-040_PI407302.v1.hifiasm.hap2.fcs_gx_3848.fasta Gsoj_MU-040_PI407302/assemblies/Gsoj_MU-040_PI407302.v1.hifiasm.fcs_gx_3848.fasta Gmax_MU-041_PI407729/assemblies/Gmax_MU-041_PI407729.v2.hifiasm.hap1.fcs_gx_3847.fasta Gmax_MU-041_PI407729/assemblies/Gmax_MU-041_PI407729.v2.hifiasm.hap2.fcs_gx_3847.fasta Gmax_MU-041_PI407729/assemblies/Gmax_MU-041_PI407729.v2.hifiasm.fcs_gx_3847.fasta Gsoj_MU-042_PI366122/assemblies/Gsoj_MU-042_PI366122.v1.hifiasm.hap1.fcs_gx_3848.fasta Gsoj_MU-042_PI366122/assemblies/Gsoj_MU-042_PI366122.v1.hifiasm.hap2.fcs_gx_3848.fasta Gsoj_MU-042_PI366122/assemblies/Gsoj_MU-042_PI366122.v1.hifiasm.fcs_gx_3848.fasta Gsoj_MU-043_PI507580/assemblies/Gsoj_MU-043_PI507580.v2.hifiasm.hap1.fcs_gx_3848.fasta Gsoj_MU-043_PI507580/assemblies/Gsoj_MU-043_PI507580.v2.hifiasm.hap2.fcs_gx_3848.fasta Gsoj_MU-043_PI507580/assemblies/Gsoj_MU-043_PI507580.v2.hifiasm.fcs_gx_3848.fasta Gmax_MU-044_PI504288/assemblies/Gmax_MU-044_PI504288.v1.hifiasm.hap1.fcs_gx_3847.fasta Gmax_MU-044_PI504288/assemblies/Gmax_MU-044_PI504288.v1.hifiasm.hap2.fcs_gx_3847.fasta Gmax_MU-044_PI504288/assemblies/Gmax_MU-044_PI504288.v1.hifiasm.fcs_gx_3847.fasta Gsoj_MU-045_PI597471D/assemblies/Gsoj_MU-045_PI597471D.v1.hifiasm.hap1.fcs_gx_3848.fasta Gsoj_MU-045_PI597471D/assemblies/Gsoj_MU-045_PI597471D.v1.hifiasm.hap2.fcs_gx_3848.fasta Gsoj_MU-045_PI597471D/assemblies/Gsoj_MU-045_PI597471D.v1.hifiasm.fcs_gx_3848.fasta Gsyn_MU-046_PI441000/assemblies/Gsyn_MU-046_PI441000.v1.hifiasm.hap1.fcs_gx_713886.fasta Gsyn_MU-046_PI441000/assemblies/Gsyn_MU-046_PI441000.v1.hifiasm.hap2.fcs_gx_713886.fasta Gsyn_MU-046_PI441000/assemblies/Gsyn_MU-046_PI441000.v1.hifiasm.fcs_gx_713886.fasta Gmax_MU-047_PI518664/assemblies/Gmax_MU-047_PI518664.v1.hifiasm.hap1.fasta Gmax_MU-047_PI518664/assemblies/Gmax_MU-047_PI518664.v1.hifiasm.hap2.fasta Gmax_MU-047_PI518664/assemblies/Gmax_MU-047_PI518664.v1.hifiasm.fasta Gsoj_MU-048_PI468916/assemblies/Gsoj_MU-048_PI468916.v1.hifiasm.hap1.fcs_gx_3848.fasta Gsoj_MU-048_PI468916/assemblies/Gsoj_MU-048_PI468916.v1.hifiasm.hap2.fcs_gx_3848.fasta Gsoj_MU-048_PI468916/assemblies/Gsoj_MU-048_PI468916.v1.hifiasm.fcs_gx_3848.fasta Gmax_MU-049_PI88788/assemblies/Gmax_MU-049_PI88788.v2.hifiasm.hap1.fcs_gx_3847.fasta Gmax_MU-049_PI88788/assemblies/Gmax_MU-049_PI88788.v2.hifiasm.hap2.fcs_gx_3847.fasta Gmax_MU-049_PI88788/assemblies/Gmax_MU-049_PI88788.v2.hifiasm.fcs_gx_3847.fasta Gmax_MU-050_PI667740/assemblies/Gmax_MU-050_PI667740.v2.hifiasm.hap1.fcs_gx_3847.fasta Gmax_MU-050_PI667740/assemblies/Gmax_MU-050_PI667740.v2.hifiasm.hap2.fcs_gx_3847.fasta Gmax_MU-050_PI667740/assemblies/Gmax_MU-050_PI667740.v2.hifiasm.fcs_gx_3847.fasta Gmax_MU-051_PI634193/assemblies/Gmax_MU-051_PI634193.v1.hifiasm.hap1.fcs_gx_3847.fasta Gmax_MU-051_PI634193/assemblies/Gmax_MU-051_PI634193.v1.hifiasm.hap2.fcs_gx_3847.fasta Gmax_MU-051_PI634193/assemblies/Gmax_MU-051_PI634193.v1.hifiasm.fcs_gx_3847.fasta Gmax_MU-052_PI572239/assemblies/Gmax_MU-052_PI572239.v1.hifiasm.hap1.fcs_gx_3847.fasta Gmax_MU-052_PI572239/assemblies/Gmax_MU-052_PI572239.v1.hifiasm.hap2.fcs_gx_3847.fasta Gmax_MU-052_PI572239/assemblies/Gmax_MU-052_PI572239.v1.hifiasm.fcs_gx_3847.fasta Gmax_MU-053_PI548986/assemblies/Gmax_MU-053_PI548986.v1.hifiasm.hap1.fcs_gx_3847.fasta Gmax_MU-053_PI548986/assemblies/Gmax_MU-053_PI548986.v1.hifiasm.hap2.fcs_gx_3847.fasta Gmax_MU-053_PI548986/assemblies/Gmax_MU-053_PI548986.v1.hifiasm.fcs_gx_3847.fasta Gste_MU-054_PI547003/assemblies/Gste_MU-054_PI547003.v2.hifiasm.hap1.fcs_gx_96944.fasta Gste_MU-054_PI547003/assemblies/Gste_MU-054_PI547003.v2.hifiasm.hap2.fcs_gx_96944.fasta Gste_MU-054_PI547003/assemblies/Gste_MU-054_PI547003.v2.hifiasm.fcs_gx_96944.fasta Gsoj_MU-055_PI639590B/assemblies/Gsoj_MU-055_PI639590B.v2.hifiasm.hap1.fcs_gx_3848.fasta Gsoj_MU-055_PI639590B/assemblies/Gsoj_MU-055_PI639590B.v2.hifiasm.hap2.fcs_gx_3848.fasta Gsoj_MU-055_PI639590B/assemblies/Gsoj_MU-055_PI639590B.v2.hifiasm.fcs_gx_3848.fasta Gmax_MU-056_PI548619/assemblies/Gmax_MU-056_PI548619.v1.hifiasm.hap1.fcs_gx_3847.fasta Gmax_MU-056_PI548619/assemblies/Gmax_MU-056_PI548619.v1.hifiasm.hap2.fcs_gx_3847.fasta Gmax_MU-056_PI548619/assemblies/Gmax_MU-056_PI548619.v1.hifiasm.fcs_gx_3847.fasta Gsoj_MU-057_PI424007/assemblies/Gsoj_MU-057_PI424007.v2.hifiasm.hap1.fcs_gx_3848.fasta Gsoj_MU-057_PI424007/assemblies/Gsoj_MU-057_PI424007.v2.hifiasm.hap2.fcs_gx_3848.fasta Gsoj_MU-057_PI424007/assemblies/Gsoj_MU-057_PI424007.v2.hifiasm.fcs_gx_3848.fasta Gsoj_MU-058_PI407162/assemblies/Gsoj_MU-058_PI407162.v1.hifiasm.hap1.fcs_gx_3848.fasta Gsoj_MU-058_PI407162/assemblies/Gsoj_MU-058_PI407162.v1.hifiasm.hap2.fcs_gx_3848.fasta Gsoj_MU-058_PI407162/assemblies/Gsoj_MU-058_PI407162.v1.hifiasm.fcs_gx_3848.fasta Gmax_MU-059_PI437112A/assemblies/Gmax_MU-059_PI437112A.v1.hifiasm.hap1.fcs_gx_3847.fasta Gmax_MU-059_PI437112A/assemblies/Gmax_MU-059_PI437112A.v1.hifiasm.hap2.fcs_gx_3847.fasta Gmax_MU-059_PI437112A/assemblies/Gmax_MU-059_PI437112A.v1.hifiasm.fcs_gx_3847.fasta Gmax_MU-060_PI548493/assemblies/Gmax_MU-060_PI548493.v1.hifiasm.hap1.fcs_gx_3847.fasta Gmax_MU-060_PI548493/assemblies/Gmax_MU-060_PI548493.v1.hifiasm.hap2.fcs_gx_3847.fasta Gmax_MU-060_PI548493/assemblies/Gmax_MU-060_PI548493.v1.hifiasm.fcs_gx_3847.fasta Gmax_MU-061_PI548445/assemblies/Gmax_MU-061_PI548445.v1.hifiasm.hap1.fcs_gx_3847.fasta Gmax_MU-061_PI548445/assemblies/Gmax_MU-061_PI548445.v1.hifiasm.hap2.fcs_gx_3847.fasta Gmax_MU-061_PI548445/assemblies/Gmax_MU-061_PI548445.v1.hifiasm.fcs_gx_3847.fasta Gmax_MU-062_PI559932/assemblies/Gmax_MU-062_PI559932.v1.hifiasm.hap1.fcs_gx_3847.fasta Gmax_MU-062_PI559932/assemblies/Gmax_MU-062_PI559932.v1.hifiasm.hap2.fcs_gx_3847.fasta Gmax_MU-062_PI559932/assemblies/Gmax_MU-062_PI559932.v1.hifiasm.fcs_gx_3847.fasta Gmax_MU-063_PI654356/assemblies/Gmax_MU-063_PI654356.v2.hifiasm.hap1.fcs_gx_3847.fasta Gmax_MU-063_PI654356/assemblies/Gmax_MU-063_PI654356.v2.hifiasm.hap2.fcs_gx_3847.fasta Gmax_MU-063_PI654356/assemblies/Gmax_MU-063_PI654356.v2.hifiasm.fcs_gx_3847.fasta Gcan_MU-064_PI583945/assemblies/Gcan_MU-064_PI583945.v1.hifiasm.hap1.fcs_gx_48924.fasta Gcan_MU-064_PI583945/assemblies/Gcan_MU-064_PI583945.v1.hifiasm.hap2.fcs_gx_48924.fasta Gcan_MU-064_PI583945/assemblies/Gcan_MU-064_PI583945.v1.hifiasm.fcs_gx_48924.fasta Gcyr_MU-065_PI446944/assemblies/Gcyr_MU-065_PI446944.v1.hifiasm.hap1.fcs_gx_45689.fasta Gcyr_MU-065_PI446944/assemblies/Gcyr_MU-065_PI446944.v1.hifiasm.hap2.fcs_gx_45689.fasta Gcyr_MU-065_PI446944/assemblies/Gcyr_MU-065_PI446944.v1.hifiasm.fcs_gx_45689.fasta Gmax_MU-066_PI548542/assemblies/Gmax_MU-066_PI548542.v1.hifiasm.hap1.fcs_gx_3847.fasta Gmax_MU-066_PI548542/assemblies/Gmax_MU-066_PI548542.v1.hifiasm.hap2.fcs_gx_3847.fasta Gmax_MU-066_PI548542/assemblies/Gmax_MU-066_PI548542.v1.hifiasm.fcs_gx_3847.fasta Gmax_MU-067_PI633970/assemblies/Gmax_MU-067_PI633970.v1.hifiasm.hap1.fcs_gx_3847.fasta Gmax_MU-067_PI633970/assemblies/Gmax_MU-067_PI633970.v1.hifiasm.hap2.fcs_gx_3847.fasta Gmax_MU-067_PI633970/assemblies/Gmax_MU-067_PI633970.v1.hifiasm.fcs_gx_3847.fasta Gmax_MU-068_PI407788A/assemblies/Gmax_MU-068_PI407788A.v1.hifiasm.hap1.fcs_gx_3847.fasta Gmax_MU-068_PI407788A/assemblies/Gmax_MU-068_PI407788A.v1.hifiasm.hap2.fcs_gx_3847.fasta Gmax_MU-068_PI407788A/assemblies/Gmax_MU-068_PI407788A.v1.hifiasm.fcs_gx_3847.fasta Gmax_MU-069_MN1511CN/assemblies/Gmax_MU-069_MN1511CN.v1.hifiasm.hap1.fcs_gx_3847.fasta Gmax_MU-069_MN1511CN/assemblies/Gmax_MU-069_MN1511CN.v1.hifiasm.hap2.fcs_gx_3847.fasta Gmax_MU-069_MN1511CN/assemblies/Gmax_MU-069_MN1511CN.v1.hifiasm.fcs_gx_3847.fasta Gmax_MU-070_PI562374/assemblies/Gmax_MU-070_PI562374.v1.hifiasm.hap1.fcs_gx_3847.fasta Gmax_MU-070_PI562374/assemblies/Gmax_MU-070_PI562374.v1.hifiasm.hap2.fcs_gx_3847.fasta Gmax_MU-070_PI562374/assemblies/Gmax_MU-070_PI562374.v1.hifiasm.fcs_gx_3847.fasta Gmax_MU-071_PI458020/assemblies/Gmax_MU-071_PI458020.v2.hifiasm.hap1.fcs_gx_3847.fasta Gmax_MU-071_PI458020/assemblies/Gmax_MU-071_PI458020.v2.hifiasm.hap2.fcs_gx_3847.fasta Gmax_MU-071_PI458020/assemblies/Gmax_MU-071_PI458020.v2.hifiasm.fcs_gx_3847.fasta Gmax_MU-072_U14-910097/assemblies/Gmax_MU-072_U14-910097.v1.hifiasm.hap1.fcs_gx_3847.fasta Gmax_MU-072_U14-910097/assemblies/Gmax_MU-072_U14-910097.v1.hifiasm.hap2.fcs_gx_3847.fasta Gmax_MU-072_U14-910097/assemblies/Gmax_MU-072_U14-910097.v1.hifiasm.fcs_gx_3847.fasta Gmax_MU-073_PI548158/assemblies/Gmax_MU-073_PI548158.v1.hifiasm.hap1.fcs_gx_3847.fasta Gmax_MU-073_PI548158/assemblies/Gmax_MU-073_PI548158.v1.hifiasm.hap2.fcs_gx_3847.fasta Gmax_MU-073_PI548158/assemblies/Gmax_MU-073_PI548158.v1.hifiasm.fcs_gx_3847.fasta Gmax_MU-074_LD02-4485/assemblies/Gmax_MU-074_LD02-4485.v1.hifiasm.hap1.fcs_gx_3847.fasta Gmax_MU-074_LD02-4485/assemblies/Gmax_MU-074_LD02-4485.v1.hifiasm.hap2.fcs_gx_3847.fasta Gmax_MU-074_LD02-4485/assemblies/Gmax_MU-074_LD02-4485.v1.hifiasm.fcs_gx_3847.fasta Gsoj_MU-075_PI597458A/assemblies/Gsoj_MU-075_PI597458A.v2.hifiasm.hap1.fcs_gx_3848.fasta Gsoj_MU-075_PI597458A/assemblies/Gsoj_MU-075_PI597458A.v2.hifiasm.hap2.fcs_gx_3848.fasta Gsoj_MU-075_PI597458A/assemblies/Gsoj_MU-075_PI597458A.v2.hifiasm.fcs_gx_3848.fasta Gmax_MU-076_PI641156/assemblies/Gmax_MU-076_PI641156.v1.hifiasm.hap1.fcs_gx_3847.fasta Gmax_MU-076_PI641156/assemblies/Gmax_MU-076_PI641156.v1.hifiasm.hap2.fcs_gx_3847.fasta Gmax_MU-076_PI641156/assemblies/Gmax_MU-076_PI641156.v1.hifiasm.fcs_gx_3847.fasta Gmax_MU-077_PI438471/assemblies/Gmax_MU-077_PI438471.v1.hifiasm.hap1.fcs_gx_3847.fasta Gmax_MU-077_PI438471/assemblies/Gmax_MU-077_PI438471.v1.hifiasm.hap2.fcs_gx_3847.fasta Gmax_MU-077_PI438471/assemblies/Gmax_MU-077_PI438471.v1.hifiasm.fcs_gx_3847.fasta Gmax_MU-078_FC32033/assemblies/Gmax_MU-078_FC32033.v1.hifiasm.hap1.fcs_gx_3847.fasta Gmax_MU-078_FC32033/assemblies/Gmax_MU-078_FC32033.v1.hifiasm.hap2.fcs_gx_3847.fasta Gmax_MU-078_FC32033/assemblies/Gmax_MU-078_FC32033.v1.hifiasm.fcs_gx_3847.fasta Gmax_MU-079_M13-250056/assemblies/Gmax_MU-079_M13-250056.v1.hifiasm.hap1.fasta Gmax_MU-079_M13-250056/assemblies/Gmax_MU-079_M13-250056.v1.hifiasm.hap2.fasta Gmax_MU-079_M13-250056/assemblies/Gmax_MU-079_M13-250056.v1.hifiasm.fasta Gmax_MU-080_PI548316/assemblies/Gmax_MU-080_PI548316.v1.hifiasm.hap1.fcs_gx_3847.fasta Gmax_MU-080_PI548316/assemblies/Gmax_MU-080_PI548316.v1.hifiasm.hap2.fcs_gx_3847.fasta Gmax_MU-080_PI548316/assemblies/Gmax_MU-080_PI548316.v1.hifiasm.fcs_gx_3847.fasta Gmax_MU-081_PI698653/assemblies/Gmax_MU-081_PI698653.v1.hifiasm.hap1.fcs_gx_3847.fasta Gmax_MU-081_PI698653/assemblies/Gmax_MU-081_PI698653.v1.hifiasm.hap2.fcs_gx_3847.fasta Gmax_MU-081_PI698653/assemblies/Gmax_MU-081_PI698653.v1.hifiasm.fcs_gx_3847.fasta Gmax_MU-082_PI639740/assemblies/Gmax_MU-082_PI639740.v1.hifiasm.hap1.fcs_gx_3847.fasta Gmax_MU-082_PI639740/assemblies/Gmax_MU-082_PI639740.v1.hifiasm.hap2.fcs_gx_3847.fasta Gmax_MU-082_PI639740/assemblies/Gmax_MU-082_PI639740.v1.hifiasm.fcs_gx_3847.fasta Gmax_MU-083_PI699632/assemblies/Gmax_MU-083_PI699632.v1.hifiasm.hap1.fcs_gx_3847.fasta Gmax_MU-083_PI699632/assemblies/Gmax_MU-083_PI699632.v1.hifiasm.hap2.fcs_gx_3847.fasta Gmax_MU-083_PI699632/assemblies/Gmax_MU-083_PI699632.v1.hifiasm.fcs_gx_3847.fasta Gmax_MU-084_PI599300/assemblies/Gmax_MU-084_PI599300.v1.hifiasm.hap1.fcs_gx_3847.fasta Gmax_MU-084_PI599300/assemblies/Gmax_MU-084_PI599300.v1.hifiasm.hap2.fcs_gx_3847.fasta Gmax_MU-084_PI599300/assemblies/Gmax_MU-084_PI599300.v1.hifiasm.fcs_gx_3847.fasta Gmax_MU-085_PI603713/assemblies/Gmax_MU-085_PI603713.v1.hifiasm.hap1.fcs_gx_3847.fasta Gmax_MU-085_PI603713/assemblies/Gmax_MU-085_PI603713.v1.hifiasm.hap2.fcs_gx_3847.fasta Gmax_MU-085_PI603713/assemblies/Gmax_MU-085_PI603713.v1.hifiasm.fcs_gx_3847.fasta Gmax_MU-086_IA3023/assemblies/Gmax_MU-086_IA3023.v1.hifiasm.hap1.fcs_gx_3847.fasta Gmax_MU-086_IA3023/assemblies/Gmax_MU-086_IA3023.v1.hifiasm.hap2.fcs_gx_3847.fasta Gmax_MU-086_IA3023/assemblies/Gmax_MU-086_IA3023.v1.hifiasm.fcs_gx_3847.fasta Gmax_MU-087_PI548402/assemblies/Gmax_MU-087_PI548402.v1.hifiasm.hap1.fcs_gx_3847.fasta Gmax_MU-087_PI548402/assemblies/Gmax_MU-087_PI548402.v1.hifiasm.hap2.fcs_gx_3847.fasta Gmax_MU-087_PI548402/assemblies/Gmax_MU-087_PI548402.v1.hifiasm.fcs_gx_3847.fasta Gmax_MU-088_PI548477/assemblies/Gmax_MU-088_PI548477.v1.hifiasm.hap1.fcs_gx_3847.fasta Gmax_MU-088_PI548477/assemblies/Gmax_MU-088_PI548477.v1.hifiasm.hap2.fcs_gx_3847.fasta Gmax_MU-088_PI548477/assemblies/Gmax_MU-088_PI548477.v1.hifiasm.fcs_gx_3847.fasta Gmax_MU-089_PI438489B/assemblies/Gmax_MU-089_PI438489B.v1.hifiasm.hap1.fcs_gx_3847.fasta Gmax_MU-089_PI438489B/assemblies/Gmax_MU-089_PI438489B.v1.hifiasm.hap2.fcs_gx_3847.fasta Gmax_MU-089_PI438489B/assemblies/Gmax_MU-089_PI438489B.v1.hifiasm.fcs_gx_3847.fasta Gmax_MU-090_PI408105A/assemblies/Gmax_MU-090_PI408105A.v1.hifiasm.hap1.fcs_gx_3847.fasta Gmax_MU-090_PI408105A/assemblies/Gmax_MU-090_PI408105A.v1.hifiasm.hap2.fcs_gx_3847.fasta Gmax_MU-090_PI408105A/assemblies/Gmax_MU-090_PI408105A.v1.hifiasm.fcs_gx_3847.fasta Gmax_MU-091_PI648270/assemblies/Gmax_MU-091_PI648270.v1.hifiasm.hap1.fcs_gx_3847.fasta Gmax_MU-091_PI648270/assemblies/Gmax_MU-091_PI648270.v1.hifiasm.hap2.fcs_gx_3847.fasta Gmax_MU-091_PI648270/assemblies/Gmax_MU-091_PI648270.v1.hifiasm.fcs_gx_3847.fasta Gsoj_MU-092_PI407038/assemblies/Gsoj_MU-092_PI407038.v1.hifiasm.hap1.fcs_gx_3848.fasta Gsoj_MU-092_PI407038/assemblies/Gsoj_MU-092_PI407038.v1.hifiasm.hap2.fcs_gx_3848.fasta Gsoj_MU-092_PI407038/assemblies/Gsoj_MU-092_PI407038.v1.hifiasm.fcs_gx_3848.fasta Gmax_MU-093_PI699900/assemblies/Gmax_MU-093_PI699900.v1.hifiasm.hap1.fcs_gx_3847.fasta Gmax_MU-093_PI699900/assemblies/Gmax_MU-093_PI699900.v1.hifiasm.hap2.fcs_gx_3847.fasta Gmax_MU-093_PI699900/assemblies/Gmax_MU-093_PI699900.v1.hifiasm.fcs_gx_3847.fasta Gmax_MU-094_PI700010/assemblies/Gmax_MU-094_PI700010.v1.hifiasm.hap1.fcs_gx_3847.fasta Gmax_MU-094_PI700010/assemblies/Gmax_MU-094_PI700010.v1.hifiasm.hap2.fcs_gx_3847.fasta Gmax_MU-094_PI700010/assemblies/Gmax_MU-094_PI700010.v1.hifiasm.fcs_gx_3847.fasta Gmax_MU-095_PI602492/assemblies/Gmax_MU-095_PI602492.v2.hifiasm.hap1.fcs_gx_3847.fasta Gmax_MU-095_PI602492/assemblies/Gmax_MU-095_PI602492.v2.hifiasm.hap2.fcs_gx_3847.fasta Gmax_MU-095_PI602492/assemblies/Gmax_MU-095_PI602492.v2.hifiasm.fcs_gx_3847.fasta Gmax_MU-096_PI90763/assemblies/Gmax_MU-096_PI90763.v1.hifiasm.hap1.fcs_gx_3847.fasta Gmax_MU-096_PI90763/assemblies/Gmax_MU-096_PI90763.v1.hifiasm.hap2.fcs_gx_3847.fasta Gmax_MU-096_PI90763/assemblies/Gmax_MU-096_PI90763.v1.hifiasm.fcs_gx_3847.fasta Gmax_MU-097_PI437654/assemblies/Gmax_MU-097_PI437654.v1.hifiasm.hap1.fcs_gx_3847.fasta Gmax_MU-097_PI437654/assemblies/Gmax_MU-097_PI437654.v1.hifiasm.hap2.fcs_gx_3847.fasta Gmax_MU-097_PI437654/assemblies/Gmax_MU-097_PI437654.v1.hifiasm.fcs_gx_3847.fasta Gsoj_MU-098_PI522226/assemblies/Gsoj_MU-098_PI522226.v1.hifiasm.hap1.fcs_gx_3848.fasta Gsoj_MU-098_PI522226/assemblies/Gsoj_MU-098_PI522226.v1.hifiasm.hap2.fcs_gx_3848.fasta Gsoj_MU-098_PI522226/assemblies/Gsoj_MU-098_PI522226.v1.hifiasm.fcs_gx_3848.fasta Gsoj_MU-099_PI639621/assemblies/Gsoj_MU-099_PI639621.v1.hifiasm.hap1.fcs_gx_3848.fasta Gsoj_MU-099_PI639621/assemblies/Gsoj_MU-099_PI639621.v1.hifiasm.hap2.fcs_gx_3848.fasta Gsoj_MU-099_PI639621/assemblies/Gsoj_MU-099_PI639621.v1.hifiasm.fcs_gx_3848.fasta Gmax_MU-100_PI596541/assemblies/Gmax_MU-100_PI596541.v1.hifiasm.hap1.fcs_gx_3847.fasta Gmax_MU-100_PI596541/assemblies/Gmax_MU-100_PI596541.v1.hifiasm.hap2.fcs_gx_3847.fasta Gmax_MU-100_PI596541/assemblies/Gmax_MU-100_PI596541.v1.hifiasm.fcs_gx_3847.fasta Gmax_MU-101_PI548982/assemblies/Gmax_MU-101_PI548982.v1.hifiasm.hap1.fasta Gmax_MU-101_PI548982/assemblies/Gmax_MU-101_PI548982.v1.hifiasm.hap2.fasta Gmax_MU-101_PI548982/assemblies/Gmax_MU-101_PI548982.v1.hifiasm.fasta Gmax_MU-102_PI619083/assemblies/Gmax_MU-102_PI619083.v1.hifiasm.hap1.fcs_gx_3847.fasta Gmax_MU-102_PI619083/assemblies/Gmax_MU-102_PI619083.v1.hifiasm.hap2.fcs_gx_3847.fasta Gmax_MU-102_PI619083/assemblies/Gmax_MU-102_PI619083.v1.hifiasm.fcs_gx_3847.fasta Gmax_MU-103_PI686349/assemblies/Gmax_MU-103_PI686349.v1.hifiasm.hap1.fcs_gx_3847.fasta Gmax_MU-103_PI686349/assemblies/Gmax_MU-103_PI686349.v1.hifiasm.hap2.fcs_gx_3847.fasta Gmax_MU-103_PI686349/assemblies/Gmax_MU-103_PI686349.v1.hifiasm.fcs_gx_3847.fasta Gmax_MU-104_PI555397/assemblies/Gmax_MU-104_PI555397.v1.hifiasm.hap1.fcs_gx_3847.fasta Gmax_MU-104_PI555397/assemblies/Gmax_MU-104_PI555397.v1.hifiasm.hap2.fcs_gx_3847.fasta Gmax_MU-104_PI555397/assemblies/Gmax_MU-104_PI555397.v1.hifiasm.fcs_gx_3847.fasta Gmax_MU-105_U11-917032/assemblies/Gmax_MU-105_U11-917032.v1.hifiasm.hap1.fcs_gx_3847.fasta Gmax_MU-105_U11-917032/assemblies/Gmax_MU-105_U11-917032.v1.hifiasm.hap2.fcs_gx_3847.fasta Gmax_MU-105_U11-917032/assemblies/Gmax_MU-105_U11-917032.v1.hifiasm.fcs_gx_3847.fasta Gmax_MU-106_K17-6388/assemblies/Gmax_MU-106_K17-6388.v1.hifiasm.hap1.fcs_gx_3847.fasta Gmax_MU-106_K17-6388/assemblies/Gmax_MU-106_K17-6388.v1.hifiasm.hap2.fcs_gx_3847.fasta Gmax_MU-106_K17-6388/assemblies/Gmax_MU-106_K17-6388.v1.hifiasm.fcs_gx_3847.fasta Gmax_MU-107_PI89772/assemblies/Gmax_MU-107_PI89772.v1.hifiasm.hap1.fcs_gx_3847.fasta Gmax_MU-107_PI89772/assemblies/Gmax_MU-107_PI89772.v1.hifiasm.hap2.fcs_gx_3847.fasta Gmax_MU-107_PI89772/assemblies/Gmax_MU-107_PI89772.v1.hifiasm.fcs_gx_3847.fasta Gmax_MU-108_IA2021/assemblies/Gmax_MU-108_IA2021.v1.hifiasm.hap1.fcs_gx_3847.fasta Gmax_MU-108_IA2021/assemblies/Gmax_MU-108_IA2021.v1.hifiasm.hap2.fcs_gx_3847.fasta Gmax_MU-108_IA2021/assemblies/Gmax_MU-108_IA2021.v1.hifiasm.fcs_gx_3847.fasta Gmax_MU-109_PI424078/assemblies/Gmax_MU-109_PI424078.v1.hifiasm.hap1.fcs_gx_3847.fasta Gmax_MU-109_PI424078/assemblies/Gmax_MU-109_PI424078.v1.hifiasm.hap2.fcs_gx_3847.fasta Gmax_MU-109_PI424078/assemblies/Gmax_MU-109_PI424078.v1.hifiasm.fcs_gx_3847.fasta Gste_MU-110-1_PI546987/assemblies/Gste_MU-110-1_PI546987.v1.hifiasm.hap1.fcs_gx_96944.fasta Gste_MU-110-1_PI546987/assemblies/Gste_MU-110-1_PI546987.v1.hifiasm.hap2.fcs_gx_96944.fasta Gste_MU-110-1_PI546987/assemblies/Gste_MU-110-1_PI546987.v1.hifiasm.fcs_gx_96944.fasta Gmax_MU-111_MN0083/assemblies/Gmax_MU-111_MN0083.v1.hifiasm.hap1.fcs_gx_3847.fasta Gmax_MU-111_MN0083/assemblies/Gmax_MU-111_MN0083.v1.hifiasm.hap2.fcs_gx_3847.fasta Gmax_MU-111_MN0083/assemblies/Gmax_MU-111_MN0083.v1.hifiasm.fcs_gx_3847.fasta Gtom_MU-112_PI505203/assemblies/Gtom_MU-112_PI505203.v1.hifiasm.hap1.fcs_gx_44015.fasta Gtom_MU-112_PI505203/assemblies/Gtom_MU-112_PI505203.v1.hifiasm.hap2.fcs_gx_44015.fasta Gtom_MU-112_PI505203/assemblies/Gtom_MU-112_PI505203.v1.hifiasm.fcs_gx_44015.fasta Gtom_MU-113_PI505229/assemblies/Gtom_MU-113_PI505229.v1.hifiasm.hap1.fcs_gx_44015.fasta Gtom_MU-113_PI505229/assemblies/Gtom_MU-113_PI505229.v1.hifiasm.hap2.fcs_gx_44015.fasta Gtom_MU-113_PI505229/assemblies/Gtom_MU-113_PI505229.v1.hifiasm.fcs_gx_44015.fasta Gmax_MU-114_PI209332/assemblies/Gmax_MU-114_PI209332.v1.hifiasm.hap1.fcs_gx_3847.fasta Gmax_MU-114_PI209332/assemblies/Gmax_MU-114_PI209332.v1.hifiasm.hap2.fcs_gx_3847.fasta Gmax_MU-114_PI209332/assemblies/Gmax_MU-114_PI209332.v1.hifiasm.fcs_gx_3847.fasta Gsoj_MU-115_PI407191/assemblies/Gsoj_MU-115_PI407191.v1.hifiasm.hap1.fcs_gx_3848.fasta Gsoj_MU-115_PI407191/assemblies/Gsoj_MU-115_PI407191.v1.hifiasm.hap2.fcs_gx_3848.fasta Gsoj_MU-115_PI407191/assemblies/Gsoj_MU-115_PI407191.v1.hifiasm.fcs_gx_3848.fasta Gmax_MU-116_PI549017/assemblies/Gmax_MU-116_PI549017.v1.hifiasm.hap1.fcs_gx_3847.fasta Gmax_MU-116_PI549017/assemblies/Gmax_MU-116_PI549017.v1.hifiasm.hap2.fcs_gx_3847.fasta Gmax_MU-116_PI549017/assemblies/Gmax_MU-116_PI549017.v1.hifiasm.fcs_gx_3847.fasta Gmax_MU-117_PI567516C/assemblies/Gmax_MU-117_PI567516C.v1.hifiasm.hap1.fcs_gx_3847.fasta Gmax_MU-117_PI567516C/assemblies/Gmax_MU-117_PI567516C.v1.hifiasm.hap2.fcs_gx_3847.fasta Gmax_MU-117_PI567516C/assemblies/Gmax_MU-117_PI567516C.v1.hifiasm.fcs_gx_3847.fasta Gfal_MU-118_PI612234/assemblies/Gfal_MU-118_PI612234.v1.hifiasm.hap1.fcs_gx_45690.fasta Gfal_MU-118_PI612234/assemblies/Gfal_MU-118_PI612234.v1.hifiasm.hap2.fcs_gx_45690.fasta Gfal_MU-118_PI612234/assemblies/Gfal_MU-118_PI612234.v1.hifiasm.fcs_gx_45690.fasta Gfal_MU-119_PI612233/assemblies/Gfal_MU-119_PI612233.v1.hifiasm.hap1.fcs_gx_45690.fasta Gfal_MU-119_PI612233/assemblies/Gfal_MU-119_PI612233.v1.hifiasm.hap2.fcs_gx_45690.fasta Gfal_MU-119_PI612233/assemblies/Gfal_MU-119_PI612233.v1.hifiasm.fcs_gx_45690.fasta Gmax_MU-Wm82_PI518671/assemblies/Gmax_Wm82.a5.refAssembly.fa GlycineAssembliesForRagtag/Gcyr_G1267a1.fa.gz GlycineAssembliesForRagtag/Gfal_G1718a1.fa.gz GlycineAssembliesForRagtag/Gste_G1974a1.fa.gz GlycineAssembliesForRagtag/Gsyn_G1300a1.fa.gz GlycineAssembliesForRagtag/Gtom_G1403a1.fa.gz GlycineAssembliesForRagtag/Gsoj_MU-ref_PI483463.fasta",
    "outbase": "pankmerk31_glycineHap1v2vPcontig_checkForSampleSwap",
    "k": 31,
    "threads": 64,
    "rounds": 1
}