{
    "index": "127glycineAssemblies_index.tar",
    "genomes": "Gmax_MU-006.v1.hifiasm.diploid Gmax_MU-009.v1.hifiasm.diploid Gmax_MU-011.v1.hifiasm.diploid Gmax_MU-012.v1.hifiasm.diploid Gmax_MU-018.v1.hifiasm.diploid Gmax_MU-020.v1.hifiasm.diploid Gmax_MU-024.v1.hifiasm.diploid Gmax_MU-027.v1.hifiasm.diploid Gmax_MU-028.v2.hifiasm.diploid Gmax_MU-038.v1.hifiasm.diploid Gmax_MU-060.v1.hifiasm.diploid Gmax_MU-061.v1.hifiasm.diploid Gmax_MU-071.v1.hifiasm.diploid Gmax_MU-077.v1.hifiasm.diploid Gmax_MU-078.v1.hifiasm.diploid Gmax_MU-088.v1.hifiasm.diploid Gmax_MU-090.v1.hifiasm.diploid Gmax_MU-091.v1.hifiasm.diploid Gmax_MU-109.v1.hifiasm.diploid Gsoj_MU-032.v1.hifiasm.diploid Gsoj_MU-033.v1.hifiasm.diploid Gsoj_MU-058.v1.hifiasm.diploid Gsoj_MU-092.v1.hifiasm.diploid Gmax_FiskebyIIIa1 Gmax_KAS173-3L05a1 Gmax_Wm82_IGA1008 Gmax_Wm82_NJAU Lee.a3.refAssembly Wm82.a5.refAssembly Gmax_Wm82ISU.softmasked",
    "exclusive": false,
    "sample": "subset_of_127glycineAssemblies_cystNematodeRace3_30susceptible",
    "disk_mb": 1000000,
    "mem_mb": 200000,
    "threads": 64,
    "mem_split": 1
}
